\relax 
\@writefile{toc}{\contentsline {section}{\numberline {1}PROGRAMMATION FONCTIONNELLE EN JS}{1}{}\protected@file@percent }
\@writefile{toc}{\contentsline {section}{\numberline {2}CONCEPTS DE LA PROGRAMMATION FONCTIONNELLE}{1}{}\protected@file@percent }
\@writefile{toc}{\contentsline {section}{\numberline {3}PROGRAMMATION FONCTIONNELLE AUJOURD’HUI}{1}{}\protected@file@percent }
\@writefile{toc}{\contentsline {section}{\numberline {4}FONCTIONS EN JS}{2}{}\protected@file@percent }
\@writefile{toc}{\contentsline {section}{\numberline {5}PORTÉE DES VARIABLES}{2}{}\protected@file@percent }
\@writefile{toc}{\contentsline {section}{\numberline {6}DÉCLARATION DE FONCTION}{2}{}\protected@file@percent }
\@writefile{toc}{\contentsline {section}{\numberline {7}EXPRESSION FONCTIONNELLE}{2}{}\protected@file@percent }
\@writefile{toc}{\contentsline {section}{\numberline {8}EXPRESSION FLÉCHÉE (1/3)}{2}{}\protected@file@percent }
\@writefile{toc}{\contentsline {section}{\numberline {9}EXPRESSION FLÉCHÉE (2/3)}{3}{}\protected@file@percent }
\@writefile{toc}{\contentsline {section}{\numberline {10}EXPRESSION FLÉCHÉE (3/3)}{3}{}\protected@file@percent }
\@writefile{toc}{\contentsline {section}{\numberline {11}LES FERMETURES (CLOSURES)}{3}{}\protected@file@percent }
\@writefile{toc}{\contentsline {section}{\numberline {12}LES FERMETURES (CLOSURES)}{3}{}\protected@file@percent }
\@writefile{toc}{\contentsline {section}{\numberline {13}LA SÉMANTIQUE DE JS}{3}{}\protected@file@percent }
